<?xml version="1.0" encoding="UTF-8"?>
<!DOCTYPE svg PUBLIC "-//W3C//DTD SVG 1.0//EN" "http://www.w3.org/TR/2001/REC-SVG-20010904/DTD/svg10.dtd" [
<!ATTLIST g
xmlns:kvg CDATA #FIXED "http://kanjivg.tagaini.net"
kvg:element CDATA #IMPLIED
kvg:variant CDATA #IMPLIED
kvg:partial CDATA #IMPLIED
kvg:original CDATA #IMPLIED
kvg:part CDATA #IMPLIED
kvg:number CDATA #IMPLIED
kvg:tradForm CDATA #IMPLIED
kvg:radicalForm CDATA #IMPLIED
kvg:position CDATA #IMPLIED
kvg:radical CDATA #IMPLIED
kvg:phon CDATA #IMPLIED >
<!ATTLIST path
xmlns:kvg CDATA #FIXED "http://kanjivg.tagaini.net"
kvg:type CDATA #IMPLIED >
]><svg style="width: 300px; height: 100px;" xmlns="http://www.w3.org/2000/svg" xmlns:xlink="http://www.w3.org/1999/xlink"><style>
.stroke_order_diagram--outer_container {
  width: 100%;
  overflow-x: auto;
  overflow-y: hidden;
}

.stroke_order_diagram--guide_line {
  fill: none;
  stroke: #ddd;
  stroke-width: 3;
  stroke-linecap: square;
  stroke-linejoin: square;
  stroke-dasharray:8, 8;
}

.stroke_order_diagram--bounding_box {
  fill: none;
  stroke: #ddd;
  stroke-width: 4;
  stroke-linecap: square;
  stroke-linejoin: square;
}

.stroke_order_diagram--current_path {
  fill: none;
  stroke: #000;
  stroke-width: 6;
  stroke-linecap: round;
  stroke-linejoin: round;
}

.stroke_order_diagram--existing_path {
  fill: none;
  stroke: #aaa;
  stroke-width: 6;
  stroke-linecap: round;
  stroke-linejoin:round;
}

.stroke_order_diagram--path_start {
  fill: rgba(255, 0, 0, 0.7);
  stroke:none
}</style><desc>Created with Snap</desc><defs></defs><line x1="1" x2="299" y1="1" y2="1" class="stroke_order_diagram--bounding_box"></line><line x1="1" x2="1" y1="1" y2="99" class="stroke_order_diagram--bounding_box"></line><line x1="1" x2="299" y1="99" y2="99" class="stroke_order_diagram--bounding_box"></line><line x1="0" x2="300" y1="50" y2="50" class="stroke_order_diagram--guide_line"></line><line x1="50" x2="50" y1="1" y2="99" class="stroke_order_diagram--guide_line"></line><line x1="99" x2="99" y1="1" y2="99" class="stroke_order_diagram--bounding_box"></line><path id="kvg:05df1-s1" kvg:type="㇕c" d="M27.75,19.89c2.38,0.99,5.17,1.14,8.67,0.68c7.1-0.93,38.3-3.9,40.47-4.08c2.86-0.23,5.11,1.52,4.09,5.1c-0.3,1.07-2.48,9.17-4.48,19.42" transform="matrix(1,0,0,1,-4,-4)" class="stroke_order_diagram--current_path"></path><path id="pathSk93xdzq0pp" kvg:type="㇕c" d="M27.75,19.89c2.38,0.99,5.17,1.14,8.67,0.68c7.1-0.93,38.3-3.9,40.47-4.08c2.86-0.23,5.11,1.52,4.09,5.1c-0.3,1.07-2.48,9.17-4.48,19.42" transform="matrix(1,0,0,1,-4,-4)" class="stroke_order_diagram--current_path"></path><circle cx="27.75" cy="19.89" r="8" class="stroke_order_diagram--path_start" transform="matrix(1,0,0,1,-4,-4)"></circle><line x1="150" x2="150" y1="1" y2="99" class="stroke_order_diagram--guide_line"></line><line x1="199" x2="199" y1="1" y2="99" class="stroke_order_diagram--bounding_box"></line><path id="pathSk93xdzq0ps" kvg:type="㇕c" d="M27.75,19.89c2.38,0.99,5.17,1.14,8.67,0.68c7.1-0.93,38.3-3.9,40.47-4.08c2.86-0.23,5.11,1.52,4.09,5.1c-0.3,1.07-2.48,9.17-4.48,19.42" transform="matrix(1,0,0,1,96,-4)" class="stroke_order_diagram--existing_path"></path><path id="kvg:05df1-s2" kvg:type="㇐" d="M23.25,45.5c2,1.25,4.54,1.56,7,1.5c10.88-0.25,28.07-2.72,41.88-4.33c1.99-0.23,4.87-0.54,7.62-0.67" transform="matrix(1,0,0,1,96,-4)" class="stroke_order_diagram--current_path"></path><path id="pathSk93xdzq0pu" kvg:type="㇐" d="M23.25,45.5c2,1.25,4.54,1.56,7,1.5c10.88-0.25,28.07-2.72,41.88-4.33c1.99-0.23,4.87-0.54,7.62-0.67" transform="matrix(1,0,0,1,96,-4)" class="stroke_order_diagram--current_path"></path><circle cx="23.25" cy="45.5" r="8" class="stroke_order_diagram--path_start" transform="matrix(1,0,0,1,96,-4)"></circle><line x1="250" x2="250" y1="1" y2="99" class="stroke_order_diagram--guide_line"></line><line x1="299" x2="299" y1="1" y2="99" class="stroke_order_diagram--bounding_box"></line><path id="pathSk93xdzq0px" kvg:type="㇕c" d="M27.75,19.89c2.38,0.99,5.17,1.14,8.67,0.68c7.1-0.93,38.3-3.9,40.47-4.08c2.86-0.23,5.11,1.52,4.09,5.1c-0.3,1.07-2.48,9.17-4.48,19.42" transform="matrix(1,0,0,1,196,-4)" class="stroke_order_diagram--existing_path"></path><path id="pathSk93xdzq0py" kvg:type="㇐" d="M23.25,45.5c2,1.25,4.54,1.56,7,1.5c10.88-0.25,28.07-2.72,41.88-4.33c1.99-0.23,4.87-0.54,7.62-0.67" transform="matrix(1,0,0,1,196,-4)" class="stroke_order_diagram--existing_path"></path><path id="kvg:05df1-s3" kvg:type="㇟" d="M25.24,47.12c1.07,1.07,1.6,2.38,1.6,4.03c0,7.6-0.1,14.71-0.1,21.6c0,19,1.26,20,34.26,20c30.38,0,31.75-1.88,31.75-12.5" transform="matrix(1,0,0,1,196,-4)" class="stroke_order_diagram--current_path"></path><path id="pathSk93xdzq0q0" kvg:type="㇟" d="M25.24,47.12c1.07,1.07,1.6,2.38,1.6,4.03c0,7.6-0.1,14.71-0.1,21.6c0,19,1.26,20,34.26,20c30.38,0,31.75-1.88,31.75-12.5" transform="matrix(1,0,0,1,196,-4)" class="stroke_order_diagram--current_path"></path><circle cx="25.24" cy="47.12" r="8" class="stroke_order_diagram--path_start" transform="matrix(1,0,0,1,196,-4)"></circle></svg>