<?xml version="1.0" encoding="UTF-8"?>
<!DOCTYPE svg PUBLIC "-//W3C//DTD SVG 1.0//EN" "http://www.w3.org/TR/2001/REC-SVG-20010904/DTD/svg10.dtd" [
<!ATTLIST g
xmlns:kvg CDATA #FIXED "http://kanjivg.tagaini.net"
kvg:element CDATA #IMPLIED
kvg:variant CDATA #IMPLIED
kvg:partial CDATA #IMPLIED
kvg:original CDATA #IMPLIED
kvg:part CDATA #IMPLIED
kvg:number CDATA #IMPLIED
kvg:tradForm CDATA #IMPLIED
kvg:radicalForm CDATA #IMPLIED
kvg:position CDATA #IMPLIED
kvg:radical CDATA #IMPLIED
kvg:phon CDATA #IMPLIED >
<!ATTLIST path
xmlns:kvg CDATA #FIXED "http://kanjivg.tagaini.net"
kvg:type CDATA #IMPLIED >
]><svg style="width: 600px; height: 100px;" xmlns="http://www.w3.org/2000/svg" xmlns:xlink="http://www.w3.org/1999/xlink"><style>
.stroke_order_diagram--outer_container {
  width: 100%;
  overflow-x: auto;
  overflow-y: hidden;
}

.stroke_order_diagram--guide_line {
  fill: none;
  stroke: #ddd;
  stroke-width: 3;
  stroke-linecap: square;
  stroke-linejoin: square;
  stroke-dasharray:8, 8;
}

.stroke_order_diagram--bounding_box {
  fill: none;
  stroke: #ddd;
  stroke-width: 4;
  stroke-linecap: square;
  stroke-linejoin: square;
}

.stroke_order_diagram--current_path {
  fill: none;
  stroke: #000;
  stroke-width: 6;
  stroke-linecap: round;
  stroke-linejoin: round;
}

.stroke_order_diagram--existing_path {
  fill: none;
  stroke: #aaa;
  stroke-width: 6;
  stroke-linecap: round;
  stroke-linejoin:round;
}

.stroke_order_diagram--path_start {
  fill: rgba(255, 0, 0, 0.7);
  stroke:none
}</style><desc>Created with Snap</desc><defs></defs><line x1="1" x2="599" y1="1" y2="1" class="stroke_order_diagram--bounding_box"></line><line x1="1" x2="1" y1="1" y2="99" class="stroke_order_diagram--bounding_box"></line><line x1="1" x2="599" y1="99" y2="99" class="stroke_order_diagram--bounding_box"></line><line x1="0" x2="600" y1="50" y2="50" class="stroke_order_diagram--guide_line"></line><line x1="50" x2="50" y1="1" y2="99" class="stroke_order_diagram--guide_line"></line><line x1="99" x2="99" y1="1" y2="99" class="stroke_order_diagram--bounding_box"></line><path id="kvg:074dc-s1" kvg:type="㇒" d="M71.01,15.5c0,1.12-1.04,2.25-2.19,2.97C61.12,23.25,52.88,27.12,36,31.54" transform="matrix(1,0,0,1,-4,-4)" class="stroke_order_diagram--current_path"></path><path id="pathSk93xdzq01v6" kvg:type="㇒" d="M71.01,15.5c0,1.12-1.04,2.25-2.19,2.97C61.12,23.25,52.88,27.12,36,31.54" transform="matrix(1,0,0,1,-4,-4)" class="stroke_order_diagram--current_path"></path><circle cx="71.01" cy="15.5" r="8" class="stroke_order_diagram--path_start" transform="matrix(1,0,0,1,-4,-4)"></circle><line x1="150" x2="150" y1="1" y2="99" class="stroke_order_diagram--guide_line"></line><line x1="199" x2="199" y1="1" y2="99" class="stroke_order_diagram--bounding_box"></line><path id="pathSk93xdzq01v9" kvg:type="㇒" d="M71.01,15.5c0,1.12-1.04,2.25-2.19,2.97C61.12,23.25,52.88,27.12,36,31.54" transform="matrix(1,0,0,1,96,-4)" class="stroke_order_diagram--existing_path"></path><path id="kvg:074dc-s2" kvg:type="㇒" d="M31.88,32.25c0.62,0.75,1.07,2.56,0.98,4.7C32,57.75,30,82.75,11.56,94.72" transform="matrix(1,0,0,1,96,-4)" class="stroke_order_diagram--current_path"></path><path id="pathSk93xdzq01vb" kvg:type="㇒" d="M31.88,32.25c0.62,0.75,1.07,2.56,0.98,4.7C32,57.75,30,82.75,11.56,94.72" transform="matrix(1,0,0,1,96,-4)" class="stroke_order_diagram--current_path"></path><circle cx="31.88" cy="32.25" r="8" class="stroke_order_diagram--path_start" transform="matrix(1,0,0,1,96,-4)"></circle><line x1="250" x2="250" y1="1" y2="99" class="stroke_order_diagram--guide_line"></line><line x1="299" x2="299" y1="1" y2="99" class="stroke_order_diagram--bounding_box"></line><path id="pathSk93xdzq01ve" kvg:type="㇒" d="M71.01,15.5c0,1.12-1.04,2.25-2.19,2.97C61.12,23.25,52.88,27.12,36,31.54" transform="matrix(1,0,0,1,196,-4)" class="stroke_order_diagram--existing_path"></path><path id="pathSk93xdzq01vf" kvg:type="㇒" d="M31.88,32.25c0.62,0.75,1.07,2.56,0.98,4.7C32,57.75,30,82.75,11.56,94.72" transform="matrix(1,0,0,1,196,-4)" class="stroke_order_diagram--existing_path"></path><path id="kvg:074dc-s3" kvg:type="㇑" d="M52.12,30.75c1.19,1.19,1.43,3,1.43,4.28c0,1.1-0.27,38.72-0.27,49.22" transform="matrix(1,0,0,1,196,-4)" class="stroke_order_diagram--current_path"></path><path id="pathSk93xdzq01vh" kvg:type="㇑" d="M52.12,30.75c1.19,1.19,1.43,3,1.43,4.28c0,1.1-0.27,38.72-0.27,49.22" transform="matrix(1,0,0,1,196,-4)" class="stroke_order_diagram--current_path"></path><circle cx="52.12" cy="30.75" r="8" class="stroke_order_diagram--path_start" transform="matrix(1,0,0,1,196,-4)"></circle><line x1="350" x2="350" y1="1" y2="99" class="stroke_order_diagram--guide_line"></line><line x1="399" x2="399" y1="1" y2="99" class="stroke_order_diagram--bounding_box"></line><path id="pathSk93xdzq01vk" kvg:type="㇒" d="M71.01,15.5c0,1.12-1.04,2.25-2.19,2.97C61.12,23.25,52.88,27.12,36,31.54" transform="matrix(1,0,0,1,296,-4)" class="stroke_order_diagram--existing_path"></path><path id="pathSk93xdzq01vl" kvg:type="㇒" d="M31.88,32.25c0.62,0.75,1.07,2.56,0.98,4.7C32,57.75,30,82.75,11.56,94.72" transform="matrix(1,0,0,1,296,-4)" class="stroke_order_diagram--existing_path"></path><path id="pathSk93xdzq01vm" kvg:type="㇑" d="M52.12,30.75c1.19,1.19,1.43,3,1.43,4.28c0,1.1-0.27,38.72-0.27,49.22" transform="matrix(1,0,0,1,296,-4)" class="stroke_order_diagram--existing_path"></path><path id="kvg:074dc-s4" kvg:type="㇀/㇐" d="M37,87.63c1.68,1.23,3.37,1.51,5.06,0.83c8.92-2.52,19.86-5.56,27.19-7.72" transform="matrix(1,0,0,1,296,-4)" class="stroke_order_diagram--current_path"></path><path id="pathSk93xdzq01vo" kvg:type="㇀/㇐" d="M37,87.63c1.68,1.23,3.37,1.51,5.06,0.83c8.92-2.52,19.86-5.56,27.19-7.72" transform="matrix(1,0,0,1,296,-4)" class="stroke_order_diagram--current_path"></path><circle cx="37" cy="87.63" r="8" class="stroke_order_diagram--path_start" transform="matrix(1,0,0,1,296,-4)"></circle><line x1="450" x2="450" y1="1" y2="99" class="stroke_order_diagram--guide_line"></line><line x1="499" x2="499" y1="1" y2="99" class="stroke_order_diagram--bounding_box"></line><path id="pathSk93xdzq01vr" kvg:type="㇒" d="M71.01,15.5c0,1.12-1.04,2.25-2.19,2.97C61.12,23.25,52.88,27.12,36,31.54" transform="matrix(1,0,0,1,396,-4)" class="stroke_order_diagram--existing_path"></path><path id="pathSk93xdzq01vs" kvg:type="㇒" d="M31.88,32.25c0.62,0.75,1.07,2.56,0.98,4.7C32,57.75,30,82.75,11.56,94.72" transform="matrix(1,0,0,1,396,-4)" class="stroke_order_diagram--existing_path"></path><path id="pathSk93xdzq01vt" kvg:type="㇑" d="M52.12,30.75c1.19,1.19,1.43,3,1.43,4.28c0,1.1-0.27,38.72-0.27,49.22" transform="matrix(1,0,0,1,396,-4)" class="stroke_order_diagram--existing_path"></path><path id="pathSk93xdzq01vu" kvg:type="㇀/㇐" d="M37,87.63c1.68,1.23,3.37,1.51,5.06,0.83c8.92-2.52,19.86-5.56,27.19-7.72" transform="matrix(1,0,0,1,396,-4)" class="stroke_order_diagram--existing_path"></path><path id="kvg:074dc-s5" kvg:type="㇔" d="M65.27,70.33c3.37,3.33,8.7,13.7,9.54,18.88" transform="matrix(1,0,0,1,396,-4)" class="stroke_order_diagram--current_path"></path><path id="pathSk93xdzq01vw" kvg:type="㇔" d="M65.27,70.33c3.37,3.33,8.7,13.7,9.54,18.88" transform="matrix(1,0,0,1,396,-4)" class="stroke_order_diagram--current_path"></path><circle cx="65.27" cy="70.33" r="8" class="stroke_order_diagram--path_start" transform="matrix(1,0,0,1,396,-4)"></circle><line x1="550" x2="550" y1="1" y2="99" class="stroke_order_diagram--guide_line"></line><line x1="599" x2="599" y1="1" y2="99" class="stroke_order_diagram--bounding_box"></line><path id="pathSk93xdzq01vz" kvg:type="㇒" d="M71.01,15.5c0,1.12-1.04,2.25-2.19,2.97C61.12,23.25,52.88,27.12,36,31.54" transform="matrix(1,0,0,1,496,-4)" class="stroke_order_diagram--existing_path"></path><path id="pathSk93xdzq01w0" kvg:type="㇒" d="M31.88,32.25c0.62,0.75,1.07,2.56,0.98,4.7C32,57.75,30,82.75,11.56,94.72" transform="matrix(1,0,0,1,496,-4)" class="stroke_order_diagram--existing_path"></path><path id="pathSk93xdzq01w1" kvg:type="㇑" d="M52.12,30.75c1.19,1.19,1.43,3,1.43,4.28c0,1.1-0.27,38.72-0.27,49.22" transform="matrix(1,0,0,1,496,-4)" class="stroke_order_diagram--existing_path"></path><path id="pathSk93xdzq01w2" kvg:type="㇀/㇐" d="M37,87.63c1.68,1.23,3.37,1.51,5.06,0.83c8.92-2.52,19.86-5.56,27.19-7.72" transform="matrix(1,0,0,1,496,-4)" class="stroke_order_diagram--existing_path"></path><path id="pathSk93xdzq01w3" kvg:type="㇔" d="M65.27,70.33c3.37,3.33,8.7,13.7,9.54,18.88" transform="matrix(1,0,0,1,496,-4)" class="stroke_order_diagram--existing_path"></path><path id="kvg:074dc-s6" kvg:type="㇏" d="M66.88,28.12c2.63,1.31,6.34,31.54,20.72,53.51c2.51,4.06,5.73,7.51,9.66,10.36" transform="matrix(1,0,0,1,496,-4)" class="stroke_order_diagram--current_path"></path><path id="pathSk93xdzq01w5" kvg:type="㇏" d="M66.88,28.12c2.63,1.31,6.34,31.54,20.72,53.51c2.51,4.06,5.73,7.51,9.66,10.36" transform="matrix(1,0,0,1,496,-4)" class="stroke_order_diagram--current_path"></path><circle cx="66.88" cy="28.12" r="8" class="stroke_order_diagram--path_start" transform="matrix(1,0,0,1,496,-4)"></circle></svg>