<?xml version="1.0" encoding="UTF-8"?>
<!DOCTYPE svg PUBLIC "-//W3C//DTD SVG 1.0//EN" "http://www.w3.org/TR/2001/REC-SVG-20010904/DTD/svg10.dtd" [
<!ATTLIST g
xmlns:kvg CDATA #FIXED "http://kanjivg.tagaini.net"
kvg:element CDATA #IMPLIED
kvg:variant CDATA #IMPLIED
kvg:partial CDATA #IMPLIED
kvg:original CDATA #IMPLIED
kvg:part CDATA #IMPLIED
kvg:number CDATA #IMPLIED
kvg:tradForm CDATA #IMPLIED
kvg:radicalForm CDATA #IMPLIED
kvg:position CDATA #IMPLIED
kvg:radical CDATA #IMPLIED
kvg:phon CDATA #IMPLIED >
<!ATTLIST path
xmlns:kvg CDATA #FIXED "http://kanjivg.tagaini.net"
kvg:type CDATA #IMPLIED >
]><svg style="width: 600px; height: 100px;" xmlns="http://www.w3.org/2000/svg" xmlns:xlink="http://www.w3.org/1999/xlink"><style>
.stroke_order_diagram--outer_container {
  width: 100%;
  overflow-x: auto;
  overflow-y: hidden;
}

.stroke_order_diagram--guide_line {
  fill: none;
  stroke: #ddd;
  stroke-width: 3;
  stroke-linecap: square;
  stroke-linejoin: square;
  stroke-dasharray:8, 8;
}

.stroke_order_diagram--bounding_box {
  fill: none;
  stroke: #ddd;
  stroke-width: 4;
  stroke-linecap: square;
  stroke-linejoin: square;
}

.stroke_order_diagram--current_path {
  fill: none;
  stroke: #000;
  stroke-width: 6;
  stroke-linecap: round;
  stroke-linejoin: round;
}

.stroke_order_diagram--existing_path {
  fill: none;
  stroke: #aaa;
  stroke-width: 6;
  stroke-linecap: round;
  stroke-linejoin:round;
}

.stroke_order_diagram--path_start {
  fill: rgba(255, 0, 0, 0.7);
  stroke:none
}</style><desc>Created with Snap</desc><defs></defs><line x1="1" x2="599" y1="1" y2="1" class="stroke_order_diagram--bounding_box"></line><line x1="1" x2="1" y1="1" y2="99" class="stroke_order_diagram--bounding_box"></line><line x1="1" x2="599" y1="99" y2="99" class="stroke_order_diagram--bounding_box"></line><line x1="0" x2="600" y1="50" y2="50" class="stroke_order_diagram--guide_line"></line><line x1="50" x2="50" y1="1" y2="99" class="stroke_order_diagram--guide_line"></line><line x1="99" x2="99" y1="1" y2="99" class="stroke_order_diagram--bounding_box"></line><path id="kvg:07af9-s1" kvg:type="㇒" d="M30.2,16.43c0.17,0.95,0.19,2.1-0.09,3.24c-1.74,7.09-7.28,22.56-15.48,31.74" transform="matrix(1,0,0,1,-4,-4)" class="stroke_order_diagram--current_path"></path><path id="pathSk93xdzq02l8" kvg:type="㇒" d="M30.2,16.43c0.17,0.95,0.19,2.1-0.09,3.24c-1.74,7.09-7.28,22.56-15.48,31.74" transform="matrix(1,0,0,1,-4,-4)" class="stroke_order_diagram--current_path"></path><circle cx="30.2" cy="16.43" r="8" class="stroke_order_diagram--path_start" transform="matrix(1,0,0,1,-4,-4)"></circle><line x1="150" x2="150" y1="1" y2="99" class="stroke_order_diagram--guide_line"></line><line x1="199" x2="199" y1="1" y2="99" class="stroke_order_diagram--bounding_box"></line><path id="pathSk93xdzq02lb" kvg:type="㇒" d="M30.2,16.43c0.17,0.95,0.19,2.1-0.09,3.24c-1.74,7.09-7.28,22.56-15.48,31.74" transform="matrix(1,0,0,1,96,-4)" class="stroke_order_diagram--existing_path"></path><path id="kvg:07af9-s2" kvg:type="㇐b" d="M24.48,43.58c6.14,0.04,14.59-2.46,21.58-3.72c1.9-0.34,3.43-0.56,4.32-0.56" transform="matrix(1,0,0,1,96,-4)" class="stroke_order_diagram--current_path"></path><path id="pathSk93xdzq02ld" kvg:type="㇐b" d="M24.48,43.58c6.14,0.04,14.59-2.46,21.58-3.72c1.9-0.34,3.43-0.56,4.32-0.56" transform="matrix(1,0,0,1,96,-4)" class="stroke_order_diagram--current_path"></path><circle cx="24.48" cy="43.58" r="8" class="stroke_order_diagram--path_start" transform="matrix(1,0,0,1,96,-4)"></circle><line x1="250" x2="250" y1="1" y2="99" class="stroke_order_diagram--guide_line"></line><line x1="299" x2="299" y1="1" y2="99" class="stroke_order_diagram--bounding_box"></line><path id="pathSk93xdzq02lg" kvg:type="㇒" d="M30.2,16.43c0.17,0.95,0.19,2.1-0.09,3.24c-1.74,7.09-7.28,22.56-15.48,31.74" transform="matrix(1,0,0,1,196,-4)" class="stroke_order_diagram--existing_path"></path><path id="pathSk93xdzq02lh" kvg:type="㇐b" d="M24.48,43.58c6.14,0.04,14.59-2.46,21.58-3.72c1.9-0.34,3.43-0.56,4.32-0.56" transform="matrix(1,0,0,1,196,-4)" class="stroke_order_diagram--existing_path"></path><path id="kvg:07af9-s3" kvg:type="㇑" d="M35.21,45.61c0.96,0.96,1.55,2.39,1.55,4.13c0,10.53-0.09,29.94-0.24,40.26c-0.04,3.02-0.07,4.71-0.07,5.62" transform="matrix(1,0,0,1,196,-4)" class="stroke_order_diagram--current_path"></path><path id="pathSk93xdzq02lj" kvg:type="㇑" d="M35.21,45.61c0.96,0.96,1.55,2.39,1.55,4.13c0,10.53-0.09,29.94-0.24,40.26c-0.04,3.02-0.07,4.71-0.07,5.62" transform="matrix(1,0,0,1,196,-4)" class="stroke_order_diagram--current_path"></path><circle cx="35.21" cy="45.61" r="8" class="stroke_order_diagram--path_start" transform="matrix(1,0,0,1,196,-4)"></circle><line x1="350" x2="350" y1="1" y2="99" class="stroke_order_diagram--guide_line"></line><line x1="399" x2="399" y1="1" y2="99" class="stroke_order_diagram--bounding_box"></line><path id="pathSk93xdzq02lm" kvg:type="㇒" d="M30.2,16.43c0.17,0.95,0.19,2.1-0.09,3.24c-1.74,7.09-7.28,22.56-15.48,31.74" transform="matrix(1,0,0,1,296,-4)" class="stroke_order_diagram--existing_path"></path><path id="pathSk93xdzq02ln" kvg:type="㇐b" d="M24.48,43.58c6.14,0.04,14.59-2.46,21.58-3.72c1.9-0.34,3.43-0.56,4.32-0.56" transform="matrix(1,0,0,1,296,-4)" class="stroke_order_diagram--existing_path"></path><path id="pathSk93xdzq02lo" kvg:type="㇑" d="M35.21,45.61c0.96,0.96,1.55,2.39,1.55,4.13c0,10.53-0.09,29.94-0.24,40.26c-0.04,3.02-0.07,4.71-0.07,5.62" transform="matrix(1,0,0,1,296,-4)" class="stroke_order_diagram--existing_path"></path><path id="kvg:07af9-s4" kvg:type="㇒" d="M68.7,11.68c0.43,1.2,0.21,2.55-0.1,3.79C66.25,24.75,59.75,38,51.14,49.4" transform="matrix(1,0,0,1,296,-4)" class="stroke_order_diagram--current_path"></path><path id="pathSk93xdzq02lq" kvg:type="㇒" d="M68.7,11.68c0.43,1.2,0.21,2.55-0.1,3.79C66.25,24.75,59.75,38,51.14,49.4" transform="matrix(1,0,0,1,296,-4)" class="stroke_order_diagram--current_path"></path><circle cx="68.7" cy="11.68" r="8" class="stroke_order_diagram--path_start" transform="matrix(1,0,0,1,296,-4)"></circle><line x1="450" x2="450" y1="1" y2="99" class="stroke_order_diagram--guide_line"></line><line x1="499" x2="499" y1="1" y2="99" class="stroke_order_diagram--bounding_box"></line><path id="pathSk93xdzq02lt" kvg:type="㇒" d="M30.2,16.43c0.17,0.95,0.19,2.1-0.09,3.24c-1.74,7.09-7.28,22.56-15.48,31.74" transform="matrix(1,0,0,1,396,-4)" class="stroke_order_diagram--existing_path"></path><path id="pathSk93xdzq02lu" kvg:type="㇐b" d="M24.48,43.58c6.14,0.04,14.59-2.46,21.58-3.72c1.9-0.34,3.43-0.56,4.32-0.56" transform="matrix(1,0,0,1,396,-4)" class="stroke_order_diagram--existing_path"></path><path id="pathSk93xdzq02lv" kvg:type="㇑" d="M35.21,45.61c0.96,0.96,1.55,2.39,1.55,4.13c0,10.53-0.09,29.94-0.24,40.26c-0.04,3.02-0.07,4.71-0.07,5.62" transform="matrix(1,0,0,1,396,-4)" class="stroke_order_diagram--existing_path"></path><path id="pathSk93xdzq02lw" kvg:type="㇒" d="M68.7,11.68c0.43,1.2,0.21,2.55-0.1,3.79C66.25,24.75,59.75,38,51.14,49.4" transform="matrix(1,0,0,1,396,-4)" class="stroke_order_diagram--existing_path"></path><path id="kvg:07af9-s5" kvg:type="㇐b" d="M64.48,36.08c8.14,0.04,20.64-3.08,28.54-4.71c2.1-0.43,3.83-0.57,4.86-0.57" transform="matrix(1,0,0,1,396,-4)" class="stroke_order_diagram--current_path"></path><path id="pathSk93xdzq02ly" kvg:type="㇐b" d="M64.48,36.08c8.14,0.04,20.64-3.08,28.54-4.71c2.1-0.43,3.83-0.57,4.86-0.57" transform="matrix(1,0,0,1,396,-4)" class="stroke_order_diagram--current_path"></path><circle cx="64.48" cy="36.08" r="8" class="stroke_order_diagram--path_start" transform="matrix(1,0,0,1,396,-4)"></circle><line x1="550" x2="550" y1="1" y2="99" class="stroke_order_diagram--guide_line"></line><line x1="599" x2="599" y1="1" y2="99" class="stroke_order_diagram--bounding_box"></line><path id="pathSk93xdzq02m1" kvg:type="㇒" d="M30.2,16.43c0.17,0.95,0.19,2.1-0.09,3.24c-1.74,7.09-7.28,22.56-15.48,31.74" transform="matrix(1,0,0,1,496,-4)" class="stroke_order_diagram--existing_path"></path><path id="pathSk93xdzq02m2" kvg:type="㇐b" d="M24.48,43.58c6.14,0.04,14.59-2.46,21.58-3.72c1.9-0.34,3.43-0.56,4.32-0.56" transform="matrix(1,0,0,1,496,-4)" class="stroke_order_diagram--existing_path"></path><path id="pathSk93xdzq02m3" kvg:type="㇑" d="M35.21,45.61c0.96,0.96,1.55,2.39,1.55,4.13c0,10.53-0.09,29.94-0.24,40.26c-0.04,3.02-0.07,4.71-0.07,5.62" transform="matrix(1,0,0,1,496,-4)" class="stroke_order_diagram--existing_path"></path><path id="pathSk93xdzq02m4" kvg:type="㇒" d="M68.7,11.68c0.43,1.2,0.21,2.55-0.1,3.79C66.25,24.75,59.75,38,51.14,49.4" transform="matrix(1,0,0,1,496,-4)" class="stroke_order_diagram--existing_path"></path><path id="pathSk93xdzq02m5" kvg:type="㇐b" d="M64.48,36.08c8.14,0.04,20.64-3.08,28.54-4.71c2.1-0.43,3.83-0.57,4.86-0.57" transform="matrix(1,0,0,1,496,-4)" class="stroke_order_diagram--existing_path"></path><path id="kvg:07af9-s6" kvg:type="㇚" d="M76.77,37.83c1.08,1.08,2.01,2.79,2.01,5.02c0,14.56-0.01,42.16-0.01,47.12c0,11.03-4.89,4.66-7.96,1" transform="matrix(1,0,0,1,496,-4)" class="stroke_order_diagram--current_path"></path><path id="pathSk93xdzq02m7" kvg:type="㇚" d="M76.77,37.83c1.08,1.08,2.01,2.79,2.01,5.02c0,14.56-0.01,42.16-0.01,47.12c0,11.03-4.89,4.66-7.96,1" transform="matrix(1,0,0,1,496,-4)" class="stroke_order_diagram--current_path"></path><circle cx="76.77" cy="37.83" r="8" class="stroke_order_diagram--path_start" transform="matrix(1,0,0,1,496,-4)"></circle></svg>