<?xml version="1.0" encoding="UTF-8"?>
<!DOCTYPE svg PUBLIC "-//W3C//DTD SVG 1.0//EN" "http://www.w3.org/TR/2001/REC-SVG-20010904/DTD/svg10.dtd" [
<!ATTLIST g
xmlns:kvg CDATA #FIXED "http://kanjivg.tagaini.net"
kvg:element CDATA #IMPLIED
kvg:variant CDATA #IMPLIED
kvg:partial CDATA #IMPLIED
kvg:original CDATA #IMPLIED
kvg:part CDATA #IMPLIED
kvg:number CDATA #IMPLIED
kvg:tradForm CDATA #IMPLIED
kvg:radicalForm CDATA #IMPLIED
kvg:position CDATA #IMPLIED
kvg:radical CDATA #IMPLIED
kvg:phon CDATA #IMPLIED >
<!ATTLIST path
xmlns:kvg CDATA #FIXED "http://kanjivg.tagaini.net"
kvg:type CDATA #IMPLIED >
]><svg style="width: 600px; height: 100px;" xmlns="http://www.w3.org/2000/svg" xmlns:xlink="http://www.w3.org/1999/xlink"><style>
.stroke_order_diagram--outer_container {
  width: 100%;
  overflow-x: auto;
  overflow-y: hidden;
}

.stroke_order_diagram--guide_line {
  fill: none;
  stroke: #ddd;
  stroke-width: 3;
  stroke-linecap: square;
  stroke-linejoin: square;
  stroke-dasharray:8, 8;
}

.stroke_order_diagram--bounding_box {
  fill: none;
  stroke: #ddd;
  stroke-width: 4;
  stroke-linecap: square;
  stroke-linejoin: square;
}

.stroke_order_diagram--current_path {
  fill: none;
  stroke: #000;
  stroke-width: 6;
  stroke-linecap: round;
  stroke-linejoin: round;
}

.stroke_order_diagram--existing_path {
  fill: none;
  stroke: #aaa;
  stroke-width: 6;
  stroke-linecap: round;
  stroke-linejoin:round;
}

.stroke_order_diagram--path_start {
  fill: rgba(255, 0, 0, 0.7);
  stroke:none
}</style><desc>Created with Snap</desc><defs></defs><line x1="1" x2="599" y1="1" y2="1" class="stroke_order_diagram--bounding_box"></line><line x1="1" x2="1" y1="1" y2="99" class="stroke_order_diagram--bounding_box"></line><line x1="1" x2="599" y1="99" y2="99" class="stroke_order_diagram--bounding_box"></line><line x1="0" x2="600" y1="50" y2="50" class="stroke_order_diagram--guide_line"></line><line x1="50" x2="50" y1="1" y2="99" class="stroke_order_diagram--guide_line"></line><line x1="99" x2="99" y1="1" y2="99" class="stroke_order_diagram--bounding_box"></line><path id="kvg:08840-s1" kvg:type="㇒" d="M53.73,19.64c0.07,0.67-0.35,2.35-0.9,3.2C48.5,29.62,40.12,39,27.06,47.72" transform="matrix(1,0,0,1,-4,-4)" class="stroke_order_diagram--current_path"></path><path id="pathSk93xdzq03ky" kvg:type="㇒" d="M53.73,19.64c0.07,0.67-0.35,2.35-0.9,3.2C48.5,29.62,40.12,39,27.06,47.72" transform="matrix(1,0,0,1,-4,-4)" class="stroke_order_diagram--current_path"></path><circle cx="53.73" cy="19.64" r="8" class="stroke_order_diagram--path_start" transform="matrix(1,0,0,1,-4,-4)"></circle><line x1="150" x2="150" y1="1" y2="99" class="stroke_order_diagram--guide_line"></line><line x1="199" x2="199" y1="1" y2="99" class="stroke_order_diagram--bounding_box"></line><path id="pathSk93xdzq03l1" kvg:type="㇒" d="M53.73,19.64c0.07,0.67-0.35,2.35-0.9,3.2C48.5,29.62,40.12,39,27.06,47.72" transform="matrix(1,0,0,1,96,-4)" class="stroke_order_diagram--existing_path"></path><path id="kvg:08840-s2" kvg:type="㇑a" d="M24.01,47.03c0.99,0.72,1.64,2.36,1.79,3.28c1.2,7.33,2.2,21.15,3.02,34.33" transform="matrix(1,0,0,1,96,-4)" class="stroke_order_diagram--current_path"></path><path id="pathSk93xdzq03l3" kvg:type="㇑a" d="M24.01,47.03c0.99,0.72,1.64,2.36,1.79,3.28c1.2,7.33,2.2,21.15,3.02,34.33" transform="matrix(1,0,0,1,96,-4)" class="stroke_order_diagram--current_path"></path><circle cx="24.01" cy="47.03" r="8" class="stroke_order_diagram--path_start" transform="matrix(1,0,0,1,96,-4)"></circle><line x1="250" x2="250" y1="1" y2="99" class="stroke_order_diagram--guide_line"></line><line x1="299" x2="299" y1="1" y2="99" class="stroke_order_diagram--bounding_box"></line><path id="pathSk93xdzq03l6" kvg:type="㇒" d="M53.73,19.64c0.07,0.67-0.35,2.35-0.9,3.2C48.5,29.62,40.12,39,27.06,47.72" transform="matrix(1,0,0,1,196,-4)" class="stroke_order_diagram--existing_path"></path><path id="pathSk93xdzq03l7" kvg:type="㇑a" d="M24.01,47.03c0.99,0.72,1.64,2.36,1.79,3.28c1.2,7.33,2.2,21.15,3.02,34.33" transform="matrix(1,0,0,1,196,-4)" class="stroke_order_diagram--existing_path"></path><path id="kvg:08840-s3" kvg:type="㇕b" d="M26.66,51.33c11.87-1.41,45.81-3.8,54.22-4.3c2.62-0.16,3.99,1.74,3.49,4.09c-1.86,8.75-4.61,25.38-5.9,31.64" transform="matrix(1,0,0,1,196,-4)" class="stroke_order_diagram--current_path"></path><path id="pathSk93xdzq03l9" kvg:type="㇕b" d="M26.66,51.33c11.87-1.41,45.81-3.8,54.22-4.3c2.62-0.16,3.99,1.74,3.49,4.09c-1.86,8.75-4.61,25.38-5.9,31.64" transform="matrix(1,0,0,1,196,-4)" class="stroke_order_diagram--current_path"></path><circle cx="26.66" cy="51.33" r="8" class="stroke_order_diagram--path_start" transform="matrix(1,0,0,1,196,-4)"></circle><line x1="350" x2="350" y1="1" y2="99" class="stroke_order_diagram--guide_line"></line><line x1="399" x2="399" y1="1" y2="99" class="stroke_order_diagram--bounding_box"></line><path id="pathSk93xdzq03lc" kvg:type="㇒" d="M53.73,19.64c0.07,0.67-0.35,2.35-0.9,3.2C48.5,29.62,40.12,39,27.06,47.72" transform="matrix(1,0,0,1,296,-4)" class="stroke_order_diagram--existing_path"></path><path id="pathSk93xdzq03ld" kvg:type="㇑a" d="M24.01,47.03c0.99,0.72,1.64,2.36,1.79,3.28c1.2,7.33,2.2,21.15,3.02,34.33" transform="matrix(1,0,0,1,296,-4)" class="stroke_order_diagram--existing_path"></path><path id="pathSk93xdzq03le" kvg:type="㇕b" d="M26.66,51.33c11.87-1.41,45.81-3.8,54.22-4.3c2.62-0.16,3.99,1.74,3.49,4.09c-1.86,8.75-4.61,25.38-5.9,31.64" transform="matrix(1,0,0,1,296,-4)" class="stroke_order_diagram--existing_path"></path><path id="kvg:08840-s4" kvg:type="㇑a" d="M43.9,51.44c0.3,0.7,0.69,1.77,0.73,2.65c0.5,12.28,0.5,20.41,0.96,29.44" transform="matrix(1,0,0,1,296,-4)" class="stroke_order_diagram--current_path"></path><path id="pathSk93xdzq03lg" kvg:type="㇑a" d="M43.9,51.44c0.3,0.7,0.69,1.77,0.73,2.65c0.5,12.28,0.5,20.41,0.96,29.44" transform="matrix(1,0,0,1,296,-4)" class="stroke_order_diagram--current_path"></path><circle cx="43.9" cy="51.44" r="8" class="stroke_order_diagram--path_start" transform="matrix(1,0,0,1,296,-4)"></circle><line x1="450" x2="450" y1="1" y2="99" class="stroke_order_diagram--guide_line"></line><line x1="499" x2="499" y1="1" y2="99" class="stroke_order_diagram--bounding_box"></line><path id="pathSk93xdzq03lj" kvg:type="㇒" d="M53.73,19.64c0.07,0.67-0.35,2.35-0.9,3.2C48.5,29.62,40.12,39,27.06,47.72" transform="matrix(1,0,0,1,396,-4)" class="stroke_order_diagram--existing_path"></path><path id="pathSk93xdzq03lk" kvg:type="㇑a" d="M24.01,47.03c0.99,0.72,1.64,2.36,1.79,3.28c1.2,7.33,2.2,21.15,3.02,34.33" transform="matrix(1,0,0,1,396,-4)" class="stroke_order_diagram--existing_path"></path><path id="pathSk93xdzq03ll" kvg:type="㇕b" d="M26.66,51.33c11.87-1.41,45.81-3.8,54.22-4.3c2.62-0.16,3.99,1.74,3.49,4.09c-1.86,8.75-4.61,25.38-5.9,31.64" transform="matrix(1,0,0,1,396,-4)" class="stroke_order_diagram--existing_path"></path><path id="pathSk93xdzq03lm" kvg:type="㇑a" d="M43.9,51.44c0.3,0.7,0.69,1.77,0.73,2.65c0.5,12.28,0.5,20.41,0.96,29.44" transform="matrix(1,0,0,1,396,-4)" class="stroke_order_diagram--existing_path"></path><path id="kvg:08840-s5" kvg:type="㇑a" d="M62.99,49.6c0.51,1.15,0.59,2.15,0.54,2.9c-0.53,8.13-1.15,16.25-2.04,30.46" transform="matrix(1,0,0,1,396,-4)" class="stroke_order_diagram--current_path"></path><path id="pathSk93xdzq03lo" kvg:type="㇑a" d="M62.99,49.6c0.51,1.15,0.59,2.15,0.54,2.9c-0.53,8.13-1.15,16.25-2.04,30.46" transform="matrix(1,0,0,1,396,-4)" class="stroke_order_diagram--current_path"></path><circle cx="62.99" cy="49.6" r="8" class="stroke_order_diagram--path_start" transform="matrix(1,0,0,1,396,-4)"></circle><line x1="550" x2="550" y1="1" y2="99" class="stroke_order_diagram--guide_line"></line><line x1="599" x2="599" y1="1" y2="99" class="stroke_order_diagram--bounding_box"></line><path id="pathSk93xdzq03lr" kvg:type="㇒" d="M53.73,19.64c0.07,0.67-0.35,2.35-0.9,3.2C48.5,29.62,40.12,39,27.06,47.72" transform="matrix(1,0,0,1,496,-4)" class="stroke_order_diagram--existing_path"></path><path id="pathSk93xdzq03ls" kvg:type="㇑a" d="M24.01,47.03c0.99,0.72,1.64,2.36,1.79,3.28c1.2,7.33,2.2,21.15,3.02,34.33" transform="matrix(1,0,0,1,496,-4)" class="stroke_order_diagram--existing_path"></path><path id="pathSk93xdzq03lt" kvg:type="㇕b" d="M26.66,51.33c11.87-1.41,45.81-3.8,54.22-4.3c2.62-0.16,3.99,1.74,3.49,4.09c-1.86,8.75-4.61,25.38-5.9,31.64" transform="matrix(1,0,0,1,496,-4)" class="stroke_order_diagram--existing_path"></path><path id="pathSk93xdzq03lu" kvg:type="㇑a" d="M43.9,51.44c0.3,0.7,0.69,1.77,0.73,2.65c0.5,12.28,0.5,20.41,0.96,29.44" transform="matrix(1,0,0,1,496,-4)" class="stroke_order_diagram--existing_path"></path><path id="pathSk93xdzq03lv" kvg:type="㇑a" d="M62.99,49.6c0.51,1.15,0.59,2.15,0.54,2.9c-0.53,8.13-1.15,16.25-2.04,30.46" transform="matrix(1,0,0,1,496,-4)" class="stroke_order_diagram--existing_path"></path><path id="kvg:08840-s6" kvg:type="㇐" d="M9.75,85.78c2.46,0.49,6.96,0.61,9.42,0.49C45.5,85,69.12,83.62,90.53,83.33c4.09-0.06,6.55,0.24,8.59,0.48" transform="matrix(1,0,0,1,496,-4)" class="stroke_order_diagram--current_path"></path><path id="pathSk93xdzq03lx" kvg:type="㇐" d="M9.75,85.78c2.46,0.49,6.96,0.61,9.42,0.49C45.5,85,69.12,83.62,90.53,83.33c4.09-0.06,6.55,0.24,8.59,0.48" transform="matrix(1,0,0,1,496,-4)" class="stroke_order_diagram--current_path"></path><circle cx="9.75" cy="85.78" r="8" class="stroke_order_diagram--path_start" transform="matrix(1,0,0,1,496,-4)"></circle></svg>