<?xml version="1.0" encoding="UTF-8"?>
<!DOCTYPE svg PUBLIC "-//W3C//DTD SVG 1.0//EN" "http://www.w3.org/TR/2001/REC-SVG-20010904/DTD/svg10.dtd" [
<!ATTLIST g
xmlns:kvg CDATA #FIXED "http://kanjivg.tagaini.net"
kvg:element CDATA #IMPLIED
kvg:variant CDATA #IMPLIED
kvg:partial CDATA #IMPLIED
kvg:original CDATA #IMPLIED
kvg:part CDATA #IMPLIED
kvg:number CDATA #IMPLIED
kvg:tradForm CDATA #IMPLIED
kvg:radicalForm CDATA #IMPLIED
kvg:position CDATA #IMPLIED
kvg:radical CDATA #IMPLIED
kvg:phon CDATA #IMPLIED >
<!ATTLIST path
xmlns:kvg CDATA #FIXED "http://kanjivg.tagaini.net"
kvg:type CDATA #IMPLIED >
]><svg style="width: 900px; height: 100px;" xmlns="http://www.w3.org/2000/svg" xmlns:xlink="http://www.w3.org/1999/xlink"><style>
.stroke_order_diagram--outer_container {
  width: 100%;
  overflow-x: auto;
  overflow-y: hidden;
}

.stroke_order_diagram--guide_line {
  fill: none;
  stroke: #ddd;
  stroke-width: 3;
  stroke-linecap: square;
  stroke-linejoin: square;
  stroke-dasharray:8, 8;
}

.stroke_order_diagram--bounding_box {
  fill: none;
  stroke: #ddd;
  stroke-width: 4;
  stroke-linecap: square;
  stroke-linejoin: square;
}

.stroke_order_diagram--current_path {
  fill: none;
  stroke: #000;
  stroke-width: 6;
  stroke-linecap: round;
  stroke-linejoin: round;
}

.stroke_order_diagram--existing_path {
  fill: none;
  stroke: #aaa;
  stroke-width: 6;
  stroke-linecap: round;
  stroke-linejoin:round;
}

.stroke_order_diagram--path_start {
  fill: rgba(255, 0, 0, 0.7);
  stroke:none
}</style><desc>Created with Snap</desc><defs></defs><line x1="1" x2="899" y1="1" y2="1" class="stroke_order_diagram--bounding_box"></line><line x1="1" x2="1" y1="1" y2="99" class="stroke_order_diagram--bounding_box"></line><line x1="1" x2="899" y1="99" y2="99" class="stroke_order_diagram--bounding_box"></line><line x1="0" x2="900" y1="50" y2="50" class="stroke_order_diagram--guide_line"></line><line x1="50" x2="50" y1="1" y2="99" class="stroke_order_diagram--guide_line"></line><line x1="99" x2="99" y1="1" y2="99" class="stroke_order_diagram--bounding_box"></line><path id="kvg:09769-s1" kvg:type="㇐" d="M22.31,23.86c2.25,0.8,5.69,0.66,8.07,0.38c12.88-1.5,35.75-3.5,50.13-4.42c2.49-0.16,4.98,0.01,7.44,0.54" transform="matrix(1,0,0,1,-4,-4)" class="stroke_order_diagram--current_path"></path><path id="pathSk93xdzq059h" kvg:type="㇐" d="M22.31,23.86c2.25,0.8,5.69,0.66,8.07,0.38c12.88-1.5,35.75-3.5,50.13-4.42c2.49-0.16,4.98,0.01,7.44,0.54" transform="matrix(1,0,0,1,-4,-4)" class="stroke_order_diagram--current_path"></path><circle cx="22.31" cy="23.86" r="8" class="stroke_order_diagram--path_start" transform="matrix(1,0,0,1,-4,-4)"></circle><line x1="150" x2="150" y1="1" y2="99" class="stroke_order_diagram--guide_line"></line><line x1="199" x2="199" y1="1" y2="99" class="stroke_order_diagram--bounding_box"></line><path id="pathSk93xdzq059k" kvg:type="㇐" d="M22.31,23.86c2.25,0.8,5.69,0.66,8.07,0.38c12.88-1.5,35.75-3.5,50.13-4.42c2.49-0.16,4.98,0.01,7.44,0.54" transform="matrix(1,0,0,1,96,-4)" class="stroke_order_diagram--existing_path"></path><path id="kvg:09769-s2" kvg:type="㇑" d="M38.08,12.38c1.02,1.02,1.55,2.18,1.69,2.94c0.48,2.68,1.72,9.47,2.83,17.42c0.25,1.76,0.47,3.47,0.65,5.01" transform="matrix(1,0,0,1,96,-4)" class="stroke_order_diagram--current_path"></path><path id="pathSk93xdzq059m" kvg:type="㇑" d="M38.08,12.38c1.02,1.02,1.55,2.18,1.69,2.94c0.48,2.68,1.72,9.47,2.83,17.42c0.25,1.76,0.47,3.47,0.65,5.01" transform="matrix(1,0,0,1,96,-4)" class="stroke_order_diagram--current_path"></path><circle cx="38.08" cy="12.38" r="8" class="stroke_order_diagram--path_start" transform="matrix(1,0,0,1,96,-4)"></circle><line x1="250" x2="250" y1="1" y2="99" class="stroke_order_diagram--guide_line"></line><line x1="299" x2="299" y1="1" y2="99" class="stroke_order_diagram--bounding_box"></line><path id="pathSk93xdzq059p" kvg:type="㇐" d="M22.31,23.86c2.25,0.8,5.69,0.66,8.07,0.38c12.88-1.5,35.75-3.5,50.13-4.42c2.49-0.16,4.98,0.01,7.44,0.54" transform="matrix(1,0,0,1,196,-4)" class="stroke_order_diagram--existing_path"></path><path id="pathSk93xdzq059q" kvg:type="㇑" d="M38.08,12.38c1.02,1.02,1.55,2.18,1.69,2.94c0.48,2.68,1.72,9.47,2.83,17.42c0.25,1.76,0.47,3.47,0.65,5.01" transform="matrix(1,0,0,1,196,-4)" class="stroke_order_diagram--existing_path"></path><path id="kvg:09769-s3" kvg:type="㇑a" d="M69.23,10.75c0.52,1.12,0.69,2.51,0.44,3.69c-1.17,5.56-1.79,9.72-3.71,17.55" transform="matrix(1,0,0,1,196,-4)" class="stroke_order_diagram--current_path"></path><path id="pathSk93xdzq059s" kvg:type="㇑a" d="M69.23,10.75c0.52,1.12,0.69,2.51,0.44,3.69c-1.17,5.56-1.79,9.72-3.71,17.55" transform="matrix(1,0,0,1,196,-4)" class="stroke_order_diagram--current_path"></path><circle cx="69.23" cy="10.75" r="8" class="stroke_order_diagram--path_start" transform="matrix(1,0,0,1,196,-4)"></circle><line x1="350" x2="350" y1="1" y2="99" class="stroke_order_diagram--guide_line"></line><line x1="399" x2="399" y1="1" y2="99" class="stroke_order_diagram--bounding_box"></line><path id="pathSk93xdzq059v" kvg:type="㇐" d="M22.31,23.86c2.25,0.8,5.69,0.66,8.07,0.38c12.88-1.5,35.75-3.5,50.13-4.42c2.49-0.16,4.98,0.01,7.44,0.54" transform="matrix(1,0,0,1,296,-4)" class="stroke_order_diagram--existing_path"></path><path id="pathSk93xdzq059w" kvg:type="㇑" d="M38.08,12.38c1.02,1.02,1.55,2.18,1.69,2.94c0.48,2.68,1.72,9.47,2.83,17.42c0.25,1.76,0.47,3.47,0.65,5.01" transform="matrix(1,0,0,1,296,-4)" class="stroke_order_diagram--existing_path"></path><path id="pathSk93xdzq059x" kvg:type="㇑a" d="M69.23,10.75c0.52,1.12,0.69,2.51,0.44,3.69c-1.17,5.56-1.79,9.72-3.71,17.55" transform="matrix(1,0,0,1,296,-4)" class="stroke_order_diagram--existing_path"></path><path id="kvg:09769-s4" kvg:type="㇐b" d="M44.08,34.94c3.67-0.31,13.71-1.07,19.68-1.53c1.83-0.14,2.99-0.16,4.04-0.04" transform="matrix(1,0,0,1,296,-4)" class="stroke_order_diagram--current_path"></path><path id="pathSk93xdzq059z" kvg:type="㇐b" d="M44.08,34.94c3.67-0.31,13.71-1.07,19.68-1.53c1.83-0.14,2.99-0.16,4.04-0.04" transform="matrix(1,0,0,1,296,-4)" class="stroke_order_diagram--current_path"></path><circle cx="44.08" cy="34.94" r="8" class="stroke_order_diagram--path_start" transform="matrix(1,0,0,1,296,-4)"></circle><line x1="450" x2="450" y1="1" y2="99" class="stroke_order_diagram--guide_line"></line><line x1="499" x2="499" y1="1" y2="99" class="stroke_order_diagram--bounding_box"></line><path id="pathSk93xdzq05a2" kvg:type="㇐" d="M22.31,23.86c2.25,0.8,5.69,0.66,8.07,0.38c12.88-1.5,35.75-3.5,50.13-4.42c2.49-0.16,4.98,0.01,7.44,0.54" transform="matrix(1,0,0,1,396,-4)" class="stroke_order_diagram--existing_path"></path><path id="pathSk93xdzq05a3" kvg:type="㇑" d="M38.08,12.38c1.02,1.02,1.55,2.18,1.69,2.94c0.48,2.68,1.72,9.47,2.83,17.42c0.25,1.76,0.47,3.47,0.65,5.01" transform="matrix(1,0,0,1,396,-4)" class="stroke_order_diagram--existing_path"></path><path id="pathSk93xdzq05a4" kvg:type="㇑a" d="M69.23,10.75c0.52,1.12,0.69,2.51,0.44,3.69c-1.17,5.56-1.79,9.72-3.71,17.55" transform="matrix(1,0,0,1,396,-4)" class="stroke_order_diagram--existing_path"></path><path id="pathSk93xdzq05a5" kvg:type="㇐b" d="M44.08,34.94c3.67-0.31,13.71-1.07,19.68-1.53c1.83-0.14,2.99-0.16,4.04-0.04" transform="matrix(1,0,0,1,396,-4)" class="stroke_order_diagram--existing_path"></path><path id="kvg:09769-s5" kvg:type="㇑" d="M26.5,46.85c0.89,0.89,1.38,2.08,1.49,2.7c1.01,5.57,1.38,8.32,2.61,14.68c0.3,1.56,0.44,1.98,0.69,3.73" transform="matrix(1,0,0,1,396,-4)" class="stroke_order_diagram--current_path"></path><path id="pathSk93xdzq05a7" kvg:type="㇑" d="M26.5,46.85c0.89,0.89,1.38,2.08,1.49,2.7c1.01,5.57,1.38,8.32,2.61,14.68c0.3,1.56,0.44,1.98,0.69,3.73" transform="matrix(1,0,0,1,396,-4)" class="stroke_order_diagram--current_path"></path><circle cx="26.5" cy="46.85" r="8" class="stroke_order_diagram--path_start" transform="matrix(1,0,0,1,396,-4)"></circle><line x1="550" x2="550" y1="1" y2="99" class="stroke_order_diagram--guide_line"></line><line x1="599" x2="599" y1="1" y2="99" class="stroke_order_diagram--bounding_box"></line><path id="pathSk93xdzq05aa" kvg:type="㇐" d="M22.31,23.86c2.25,0.8,5.69,0.66,8.07,0.38c12.88-1.5,35.75-3.5,50.13-4.42c2.49-0.16,4.98,0.01,7.44,0.54" transform="matrix(1,0,0,1,496,-4)" class="stroke_order_diagram--existing_path"></path><path id="pathSk93xdzq05ab" kvg:type="㇑" d="M38.08,12.38c1.02,1.02,1.55,2.18,1.69,2.94c0.48,2.68,1.72,9.47,2.83,17.42c0.25,1.76,0.47,3.47,0.65,5.01" transform="matrix(1,0,0,1,496,-4)" class="stroke_order_diagram--existing_path"></path><path id="pathSk93xdzq05ac" kvg:type="㇑a" d="M69.23,10.75c0.52,1.12,0.69,2.51,0.44,3.69c-1.17,5.56-1.79,9.72-3.71,17.55" transform="matrix(1,0,0,1,496,-4)" class="stroke_order_diagram--existing_path"></path><path id="pathSk93xdzq05ad" kvg:type="㇐b" d="M44.08,34.94c3.67-0.31,13.71-1.07,19.68-1.53c1.83-0.14,2.99-0.16,4.04-0.04" transform="matrix(1,0,0,1,496,-4)" class="stroke_order_diagram--existing_path"></path><path id="pathSk93xdzq05ae" kvg:type="㇑" d="M26.5,46.85c0.89,0.89,1.38,2.08,1.49,2.7c1.01,5.57,1.38,8.32,2.61,14.68c0.3,1.56,0.44,1.98,0.69,3.73" transform="matrix(1,0,0,1,496,-4)" class="stroke_order_diagram--existing_path"></path><path id="kvg:09769-s6" kvg:type="㇕b" d="M28.64,48.71c14.86-1.71,43.42-4.53,49.8-5.19c2.33-0.24,4.05,1.7,3.65,3.1c-0.84,2.88-1.96,6.63-3.92,12.65" transform="matrix(1,0,0,1,496,-4)" class="stroke_order_diagram--current_path"></path><path id="pathSk93xdzq05ag" kvg:type="㇕b" d="M28.64,48.71c14.86-1.71,43.42-4.53,49.8-5.19c2.33-0.24,4.05,1.7,3.65,3.1c-0.84,2.88-1.96,6.63-3.92,12.65" transform="matrix(1,0,0,1,496,-4)" class="stroke_order_diagram--current_path"></path><circle cx="28.64" cy="48.71" r="8" class="stroke_order_diagram--path_start" transform="matrix(1,0,0,1,496,-4)"></circle><line x1="650" x2="650" y1="1" y2="99" class="stroke_order_diagram--guide_line"></line><line x1="699" x2="699" y1="1" y2="99" class="stroke_order_diagram--bounding_box"></line><path id="pathSk93xdzq05aj" kvg:type="㇐" d="M22.31,23.86c2.25,0.8,5.69,0.66,8.07,0.38c12.88-1.5,35.75-3.5,50.13-4.42c2.49-0.16,4.98,0.01,7.44,0.54" transform="matrix(1,0,0,1,596,-4)" class="stroke_order_diagram--existing_path"></path><path id="pathSk93xdzq05ak" kvg:type="㇑" d="M38.08,12.38c1.02,1.02,1.55,2.18,1.69,2.94c0.48,2.68,1.72,9.47,2.83,17.42c0.25,1.76,0.47,3.47,0.65,5.01" transform="matrix(1,0,0,1,596,-4)" class="stroke_order_diagram--existing_path"></path><path id="pathSk93xdzq05al" kvg:type="㇑a" d="M69.23,10.75c0.52,1.12,0.69,2.51,0.44,3.69c-1.17,5.56-1.79,9.72-3.71,17.55" transform="matrix(1,0,0,1,596,-4)" class="stroke_order_diagram--existing_path"></path><path id="pathSk93xdzq05am" kvg:type="㇐b" d="M44.08,34.94c3.67-0.31,13.71-1.07,19.68-1.53c1.83-0.14,2.99-0.16,4.04-0.04" transform="matrix(1,0,0,1,596,-4)" class="stroke_order_diagram--existing_path"></path><path id="pathSk93xdzq05an" kvg:type="㇑" d="M26.5,46.85c0.89,0.89,1.38,2.08,1.49,2.7c1.01,5.57,1.38,8.32,2.61,14.68c0.3,1.56,0.44,1.98,0.69,3.73" transform="matrix(1,0,0,1,596,-4)" class="stroke_order_diagram--existing_path"></path><path id="pathSk93xdzq05ao" kvg:type="㇕b" d="M28.64,48.71c14.86-1.71,43.42-4.53,49.8-5.19c2.33-0.24,4.05,1.7,3.65,3.1c-0.84,2.88-1.96,6.63-3.92,12.65" transform="matrix(1,0,0,1,596,-4)" class="stroke_order_diagram--existing_path"></path><path id="kvg:09769-s7" kvg:type="㇐b" d="M32.04,63.88c6.54-0.65,30.59-2.55,42.95-3.52c1.78-0.14,3.31-0.26,4.51-0.35" transform="matrix(1,0,0,1,596,-4)" class="stroke_order_diagram--current_path"></path><path id="pathSk93xdzq05aq" kvg:type="㇐b" d="M32.04,63.88c6.54-0.65,30.59-2.55,42.95-3.52c1.78-0.14,3.31-0.26,4.51-0.35" transform="matrix(1,0,0,1,596,-4)" class="stroke_order_diagram--current_path"></path><circle cx="32.04" cy="63.88" r="8" class="stroke_order_diagram--path_start" transform="matrix(1,0,0,1,596,-4)"></circle><line x1="750" x2="750" y1="1" y2="99" class="stroke_order_diagram--guide_line"></line><line x1="799" x2="799" y1="1" y2="99" class="stroke_order_diagram--bounding_box"></line><path id="pathSk93xdzq05at" kvg:type="㇐" d="M22.31,23.86c2.25,0.8,5.69,0.66,8.07,0.38c12.88-1.5,35.75-3.5,50.13-4.42c2.49-0.16,4.98,0.01,7.44,0.54" transform="matrix(1,0,0,1,696,-4)" class="stroke_order_diagram--existing_path"></path><path id="pathSk93xdzq05au" kvg:type="㇑" d="M38.08,12.38c1.02,1.02,1.55,2.18,1.69,2.94c0.48,2.68,1.72,9.47,2.83,17.42c0.25,1.76,0.47,3.47,0.65,5.01" transform="matrix(1,0,0,1,696,-4)" class="stroke_order_diagram--existing_path"></path><path id="pathSk93xdzq05av" kvg:type="㇑a" d="M69.23,10.75c0.52,1.12,0.69,2.51,0.44,3.69c-1.17,5.56-1.79,9.72-3.71,17.55" transform="matrix(1,0,0,1,696,-4)" class="stroke_order_diagram--existing_path"></path><path id="pathSk93xdzq05aw" kvg:type="㇐b" d="M44.08,34.94c3.67-0.31,13.71-1.07,19.68-1.53c1.83-0.14,2.99-0.16,4.04-0.04" transform="matrix(1,0,0,1,696,-4)" class="stroke_order_diagram--existing_path"></path><path id="pathSk93xdzq05ax" kvg:type="㇑" d="M26.5,46.85c0.89,0.89,1.38,2.08,1.49,2.7c1.01,5.57,1.38,8.32,2.61,14.68c0.3,1.56,0.44,1.98,0.69,3.73" transform="matrix(1,0,0,1,696,-4)" class="stroke_order_diagram--existing_path"></path><path id="pathSk93xdzq05ay" kvg:type="㇕b" d="M28.64,48.71c14.86-1.71,43.42-4.53,49.8-5.19c2.33-0.24,4.05,1.7,3.65,3.1c-0.84,2.88-1.96,6.63-3.92,12.65" transform="matrix(1,0,0,1,696,-4)" class="stroke_order_diagram--existing_path"></path><path id="pathSk93xdzq05az" kvg:type="㇐b" d="M32.04,63.88c6.54-0.65,30.59-2.55,42.95-3.52c1.78-0.14,3.31-0.26,4.51-0.35" transform="matrix(1,0,0,1,696,-4)" class="stroke_order_diagram--existing_path"></path><path id="kvg:09769-s8" kvg:type="㇐" d="M16.75,78.2c3.38,0.93,6.33,0.73,9.39,0.43C38.64,77.4,69.24,74.67,86,74.1c3.03-0.1,6.02-0.2,9,0.44" transform="matrix(1,0,0,1,696,-4)" class="stroke_order_diagram--current_path"></path><path id="pathSk93xdzq05b1" kvg:type="㇐" d="M16.75,78.2c3.38,0.93,6.33,0.73,9.39,0.43C38.64,77.4,69.24,74.67,86,74.1c3.03-0.1,6.02-0.2,9,0.44" transform="matrix(1,0,0,1,696,-4)" class="stroke_order_diagram--current_path"></path><circle cx="16.75" cy="78.2" r="8" class="stroke_order_diagram--path_start" transform="matrix(1,0,0,1,696,-4)"></circle><line x1="850" x2="850" y1="1" y2="99" class="stroke_order_diagram--guide_line"></line><line x1="899" x2="899" y1="1" y2="99" class="stroke_order_diagram--bounding_box"></line><path id="pathSk93xdzq05b4" kvg:type="㇐" d="M22.31,23.86c2.25,0.8,5.69,0.66,8.07,0.38c12.88-1.5,35.75-3.5,50.13-4.42c2.49-0.16,4.98,0.01,7.44,0.54" transform="matrix(1,0,0,1,796,-4)" class="stroke_order_diagram--existing_path"></path><path id="pathSk93xdzq05b5" kvg:type="㇑" d="M38.08,12.38c1.02,1.02,1.55,2.18,1.69,2.94c0.48,2.68,1.72,9.47,2.83,17.42c0.25,1.76,0.47,3.47,0.65,5.01" transform="matrix(1,0,0,1,796,-4)" class="stroke_order_diagram--existing_path"></path><path id="pathSk93xdzq05b6" kvg:type="㇑a" d="M69.23,10.75c0.52,1.12,0.69,2.51,0.44,3.69c-1.17,5.56-1.79,9.72-3.71,17.55" transform="matrix(1,0,0,1,796,-4)" class="stroke_order_diagram--existing_path"></path><path id="pathSk93xdzq05b7" kvg:type="㇐b" d="M44.08,34.94c3.67-0.31,13.71-1.07,19.68-1.53c1.83-0.14,2.99-0.16,4.04-0.04" transform="matrix(1,0,0,1,796,-4)" class="stroke_order_diagram--existing_path"></path><path id="pathSk93xdzq05b8" kvg:type="㇑" d="M26.5,46.85c0.89,0.89,1.38,2.08,1.49,2.7c1.01,5.57,1.38,8.32,2.61,14.68c0.3,1.56,0.44,1.98,0.69,3.73" transform="matrix(1,0,0,1,796,-4)" class="stroke_order_diagram--existing_path"></path><path id="pathSk93xdzq05b9" kvg:type="㇕b" d="M28.64,48.71c14.86-1.71,43.42-4.53,49.8-5.19c2.33-0.24,4.05,1.7,3.65,3.1c-0.84,2.88-1.96,6.63-3.92,12.65" transform="matrix(1,0,0,1,796,-4)" class="stroke_order_diagram--existing_path"></path><path id="pathSk93xdzq05ba" kvg:type="㇐b" d="M32.04,63.88c6.54-0.65,30.59-2.55,42.95-3.52c1.78-0.14,3.31-0.26,4.51-0.35" transform="matrix(1,0,0,1,796,-4)" class="stroke_order_diagram--existing_path"></path><path id="pathSk93xdzq05bb" kvg:type="㇐" d="M16.75,78.2c3.38,0.93,6.33,0.73,9.39,0.43C38.64,77.4,69.24,74.67,86,74.1c3.03-0.1,6.02-0.2,9,0.44" transform="matrix(1,0,0,1,796,-4)" class="stroke_order_diagram--existing_path"></path><path id="kvg:09769-s9" kvg:type="㇑" d="M53.87,37.25c0.81,0.81,0.96,2.48,0.96,3.5c0,4.25-0.11,35.62-0.11,51.75c0,3.14-0.07,5.46-0.11,6.5" transform="matrix(1,0,0,1,796,-4)" class="stroke_order_diagram--current_path"></path><path id="pathSk93xdzq05bd" kvg:type="㇑" d="M53.87,37.25c0.81,0.81,0.96,2.48,0.96,3.5c0,4.25-0.11,35.62-0.11,51.75c0,3.14-0.07,5.46-0.11,6.5" transform="matrix(1,0,0,1,796,-4)" class="stroke_order_diagram--current_path"></path><circle cx="53.87" cy="37.25" r="8" class="stroke_order_diagram--path_start" transform="matrix(1,0,0,1,796,-4)"></circle></svg>